Exploring the relationship between height and sport of Olympic athletes
…
We can use the read_csv function (the tidyverse version of read.csv) to read in data from the csv file into R.

olympics <- read_csv("olympics.csv")

Preview the data

We have chosen the olympics dataset which contains a massive tibble of the sports, the national olympics committees and various other statistics

In accordance to the question, the variables we are interested in are the height, and sport of the players. If time allows we may also attempt at the country that the players reside in

By typing out just the variable name we can see a tibble showing a preview of the data

olympics

# A tibble: 271,116 x 15
      id name      sex     age height weight team   noc   games   year
   <dbl> <chr>     <chr> <dbl>  <dbl>  <dbl> <chr>  <chr> <chr>  <dbl>
 1     1 A Dijiang M        24    180     80 China  CHN   1992 ~  1992
 2     2 A Lamusi  M        23    170     60 China  CHN   2012 ~  2012
 3     3 Gunnar N~ M        24     NA     NA Denma~ DEN   1920 ~  1920
 4     4 Edgar Li~ M        34     NA     NA Denma~ DEN   1900 ~  1900
 5     5 Christin~ F        21    185     82 Nethe~ NED   1988 ~  1988
 6     5 Christin~ F        21    185     82 Nethe~ NED   1988 ~  1988
 7     5 Christin~ F        25    185     82 Nethe~ NED   1992 ~  1992
 8     5 Christin~ F        25    185     82 Nethe~ NED   1992 ~  1992
 9     5 Christin~ F        27    185     82 Nethe~ NED   1994 ~  1994
10     5 Christin~ F        27    185     82 Nethe~ NED   1994 ~  1994
# ... with 271,106 more rows, and 5 more variables: season <chr>,
#   city <chr>, sport <chr>, event <chr>, medal <chr>
…
We also use na.omit function to omit values that don’t have data

We can preview the mini dataset

The %>% function is called the pipe function, which runs another line of code after the previous one

olympic_clean <- olympics %>%
  select(height, sport) %>%
  filter(sport %in% c("Basketball", "Volleyball", "Gymnastics", "Football", "Tennis")) %>%
  na.omit()

olympic_clean

# A tibble: 32,515 x 2
   height sport     
    <dbl> <chr>     
 1    180 Basketball
 2    175 Gymnastics
 3    175 Gymnastics
 4    175 Gymnastics
 5    175 Gymnastics
 6    175 Gymnastics
 7    175 Gymnastics
 8    175 Gymnastics
 9    175 Gymnastics
10    175 Gymnastics
# ... with 32,505 more rows
…
Furthermore, we can show the alterations of mean heights of sports over time with this scatter plot.

olympic_scatter <- olympics %>%
  select(year, sport, height) %>%
  filter(sport %in% c("Basketball", "Volleyball", "Gymnastics", "Football", "Tennis")) %>%
  na.omit() %>%
  group_by(sport, year) %>%
  summarise(mean_height = round(mean(height), 2)) %>%
  arrange(desc(mean_height))

olympic_scatter

# A tibble: 99 x 3
# Groups:   sport [5]
   sport       year mean_height
   <chr>      <dbl>       <dbl>
 1 Basketball  1972        193.
 2 Basketball  1992        193.
 3 Basketball  1984        192.
 4 Basketball  2012        192.
 5 Basketball  2016        192.
 6 Basketball  2008        192.
 7 Basketball  2004        192.
 8 Basketball  1988        191.
 9 Basketball  2000        191 
10 Basketball  1980        191.
# ... with 89 more rows
…
